{
	"sectors": [
		{	"path":"2d",
			"loop": false,
			"timing": 0,
			"position": {
				"x": 5760,
				"y": 0
			},
			"size": {
				"width": 1920,
				"height": 1080
			},
			"images":[
				"2dui.png"
			]
		},
		{	"path":"fill",
			"loop": false,
			"timing": 0,
			"position": {
				"x": 5760,
				"y": 1080
			},
			"size": {
				"width": 1920,
				"height": 1080
			},
			"images":[
				"fill.png"
			]
		},
		{	"path":"fill",
			"loop": false,
			"timing": 0,
			"position": {
				"x": 3840,
				"y": 0
			},
			"size": {
				"width": 1920,
				"height": 1080
			},
			"images":[
				"fill.png"
			]
		},
		{	"path":"fill",
			"loop": false,
			"timing": 0,
			"position": {
				"x": 3840,
				"y": 1080
			},
			"size": {
				"width": 1920,
				"height": 1080
			},
			"images":[
				"fill.png"
			]
		},
		{	"path":"fill",
			"loop": false,
			"timing": 0,
			"position": {
				"x": 7680,
				"y": 0
			},
			"size": {
				"width": 1920,
				"height": 1080
			},
			"images":[
				"fill.png"
			]
		},
		{	"path":"fill",
			"loop": false,
			"timing": 0,
			"position": {
				"x": 7680,
				"y": 1080
			},
			"size": {
				"width": 1920,
				"height": 1080
			},
			"images":[
				"fill.png"
			]
		},
		{	"path":"fill",
			"loop": false,
			"timing": 0,
			"position": {
				"x": 0,
				"y": 2160
			},
			"size": {
				"width": 1920,
				"height": 1080
			},
			"images":[
				"fill.png"
			]
		},
		{	"path":"fill",
			"loop": false,
			"timing": 0,
			"position": {
				"x": 0,
				"y": 3240
			},
			"size": {
				"width": 1920,
				"height": 1080
			},
			"images":[
				"fill.png"
			]
		},
		{	"path":"fill",
			"loop": false,
			"timing": 0,
			"position": {
				"x": 1920,
				"y": 2160
			},
			"size": {
				"width": 1920,
				"height": 1080
			},
			"images":[
				"fill.png"
			]
		},
		{	"path":"fill",
			"loop": false,
			"timing": 0,
			"position": {
				"x": 1920,
				"y": 3240
			},
			"size": {
				"width": 1920,
				"height": 1080
			},
			"images":[
				"fill.png"
			]
		},
		{	"path":"2d",
			"loop": false,
			"timing": 0,
			"position": {
				"x": 3840,
				"y": 2160
			},
			"size": {
				"width": 1920,
				"height": 2160
			},
			"images":[
				"statueboy.png"
			]
		},
		{	"path":"2d",
			"loop": false,
			"timing": 0,
			"position": {
				"x": 5760,
				"y": 2160
			},
			"size": {
				"width": 1920,
				"height": 2160
			},
			"images":[
				"statueboycombined.png"
			]
		},
		{	"path":"2d",
			"loop": false,
			"timing": 0,
			"position": {
				"x": 7680,
				"y": 2160
			},
			"size": {
				"width": 1920,
				"height": 2160
			},
			"images":[
				"statueboylines.png"
			]
		},
		{	"path":"2d",
			"loop": false,
			"timing": 0,
			"position": {
				"x": 0,
				"y": 0
			},
			"size": {
				"width": 3840,
				"height": 2160
			},
			"images":[
				"fields.png"
			]
		}
	]
}